Features • Word Predictor
…
The following example returns all 3-gram tokens that start with great_:

# The ngram file name
fn <- paste0(ddir2, "/n3.RDS")
# The DataAnalyzer object is created
da <- DataAnalyzer$new()
# Bi-grams starting with "great_" are returned
df <- da$get_ngrams(fn = fn, c = 10, pre = "^great_*")
# The data frame is sorted by frequency
df <- df[order(df$freq, decreasing = T),]
# The data frame is printed
print(df)
#> # A tibble: 140 x 2
#>    pre                      freq
#>    <fct>                   <dbl>
#>  1 great_from_the              2
#>  2 great_idea_to               2
#>  3 great_to_be                 2
#>  4 great_to_see                2
#>  5 greater_than_our            2
#>  6 great_ability_to            1
#>  7 great_about_is              1
#>  8 great_accidents_that        1
#>  9 great_ambassadors_and       1
#> 10 great_american_festival     1
#> # … with 130 more rows
…
